module bitbucket.org/14DENDIK/firstapp/grpc_tasks/contact_task

go 1.14

require (
	github.com/golang/protobuf v1.4.2
	github.com/lib/pq v1.7.0
	golang.org/x/net v0.0.0-20190311183353-d8887717615a
	google.golang.org/grpc v1.27.0
	google.golang.org/protobuf v1.25.0
)
